{
  "selector": {
    "type": "text",
    "value": "",
    "label": "Query Selector",
    "desc": "With the Query Selector you define which elements should be tracked. See also <a href='https://developer.mozilla.org/de/docs/Web/API/Document/querySelectorAll'>Instructions on Mozilla Web</a>.",
    "optional": false
  },
  "event_group": {
    "type": "text",
    "value": "Click-tracking",
    "label": "Event Group",
    "desc": "Which event group will this click event belong to.",
    "optional": false
  },
  "event_name": {
    "type": "text",
    "value": "",
    "label": "Event Name",
    "desc": "Meaningful name of the event, which you can easily distinguish in the report.",
    "optional": false
  }
}